%YAML 1.1
%TAG !u! tag:unity3d.com,2011:
--- !u!1045 &1
EditorBuildSettings:
  m_ObjectHideFlags: 0
  serializedVersion: 2
  m_Scenes:
  - enabled: 0
    path: Assets/Scenes/SampleScene.unity
    guid: d1c3109bdb54ad54c8a2b2838528e640
  - enabled: 1
    path: Assets/Scenes/TestScene.unity
    guid: c4848786ddbaab041a067fa1300ceb3c
  m_configObjects:
    Unity.XR.Oculus.Settings: {fileID: 11400000, guid: 29fbe2b4683000e4eb8ad068422d5a6e, type: 2}
    com.unity.xr.management.loader_settings: {fileID: 11400000, guid: 29c67ec9afd56fb439d8bc5aa678d651, type: 2}
    com.unity.xr.openxr.settings4: {fileID: 11400000, guid: 651e9b81f7be0824caca0875698c7d55, type: 2}
